%YAML 1.1
%TAG !u! tag:unity3d.com,2011:
--- !u!1001 &3364561698359192265
PrefabInstance:
  m_ObjectHideFlags: 0
  serializedVersion: 2
  m_Modification:
    m_TransformParent: {fileID: 0}
    m_Modifications:
    - target: {fileID: 3734225352133022636, guid: a7680d4b97ef5614582c1aec964f28ce, type: 3}
      propertyPath: hp
      value: 20
      objectReference: {fileID: 0}
    - target: {fileID: 3734225352133022636, guid: a7680d4b97ef5614582c1aec964f28ce, type: 3}
      propertyPath: expOnKill
      value: 450
      objectReference: {fileID: 0}
    - target: {fileID: 3734225352133022636, guid: a7680d4b97ef5614582c1aec964f28ce, type: 3}
      propertyPath: difficulty
      value: 3
      objectReference: {fileID: 0}
    - target: {fileID: 3734225352133022636, guid: a7680d4b97ef5614582c1aec964f28ce, type: 3}
      propertyPath: goldOnKill
      value: 75
      objectReference: {fileID: 0}
    - target: {fileID: 6698403801288838993, guid: a7680d4b97ef5614582c1aec964f28ce, type: 3}
      propertyPath: m_Sprite
      value: 
      objectReference: {fileID: -8284555360286226792, guid: 15c05998070439040bbac22af964b25c, type: 3}
    - target: {fileID: 6698403801288838993, guid: a7680d4b97ef5614582c1aec964f28ce, type: 3}
      propertyPath: m_Color.b
      value: 0.6084906
      objectReference: {fileID: 0}
    - target: {fileID: 6698403801288838993, guid: a7680d4b97ef5614582c1aec964f28ce, type: 3}
      propertyPath: m_Color.g
      value: 1
      objectReference: {fileID: 0}
    - target: {fileID: 6698403801288838993, guid: a7680d4b97ef5614582c1aec964f28ce, type: 3}
      propertyPath: m_Color.r
      value: 0.62912804
      objectReference: {fileID: 0}
    - target: {fileID: 6698403801288838994, guid: a7680d4b97ef5614582c1aec964f28ce, type: 3}
      propertyPath: m_RootOrder
      value: 0
      objectReference: {fileID: 0}
    - target: {fileID: 6698403801288838994, guid: a7680d4b97ef5614582c1aec964f28ce, type: 3}
      propertyPath: m_LocalScale.x
      value: 1.4
      objectReference: {fileID: 0}
    - target: {fileID: 6698403801288838994, guid: a7680d4b97ef5614582c1aec964f28ce, type: 3}
      propertyPath: m_LocalScale.y
      value: 1.4
      objectReference: {fileID: 0}
    - target: {fileID: 6698403801288838994, guid: a7680d4b97ef5614582c1aec964f28ce, type: 3}
      propertyPath: m_LocalScale.z
      value: 1.4
      objectReference: {fileID: 0}
    - target: {fileID: 6698403801288838994, guid: a7680d4b97ef5614582c1aec964f28ce, type: 3}
      propertyPath: m_LocalPosition.x
      value: 0
      objectReference: {fileID: 0}
    - target: {fileID: 6698403801288838994, guid: a7680d4b97ef5614582c1aec964f28ce, type: 3}
      propertyPath: m_LocalPosition.y
      value: 0
      objectReference: {fileID: 0}
    - target: {fileID: 6698403801288838994, guid: a7680d4b97ef5614582c1aec964f28ce, type: 3}
      propertyPath: m_LocalPosition.z
      value: 0
      objectReference: {fileID: 0}
    - target: {fileID: 6698403801288838994, guid: a7680d4b97ef5614582c1aec964f28ce, type: 3}
      propertyPath: m_LocalRotation.w
      value: 1
      objectReference: {fileID: 0}
    - target: {fileID: 6698403801288838994, guid: a7680d4b97ef5614582c1aec964f28ce, type: 3}
      propertyPath: m_LocalRotation.x
      value: 0
      objectReference: {fileID: 0}
    - target: {fileID: 6698403801288838994, guid: a7680d4b97ef5614582c1aec964f28ce, type: 3}
      propertyPath: m_LocalRotation.y
      value: 0
      objectReference: {fileID: 0}
    - target: {fileID: 6698403801288838994, guid: a7680d4b97ef5614582c1aec964f28ce, type: 3}
      propertyPath: m_LocalRotation.z
      value: 0
      objectReference: {fileID: 0}
    - target: {fileID: 6698403801288838994, guid: a7680d4b97ef5614582c1aec964f28ce, type: 3}
      propertyPath: m_LocalEulerAnglesHint.x
      value: 0
      objectReference: {fileID: 0}
    - target: {fileID: 6698403801288838994, guid: a7680d4b97ef5614582c1aec964f28ce, type: 3}
      propertyPath: m_LocalEulerAnglesHint.y
      value: 0
      objectReference: {fileID: 0}
    - target: {fileID: 6698403801288838994, guid: a7680d4b97ef5614582c1aec964f28ce, type: 3}
      propertyPath: m_LocalEulerAnglesHint.z
      value: 0
      objectReference: {fileID: 0}
    - target: {fileID: 6698403801288838995, guid: a7680d4b97ef5614582c1aec964f28ce, type: 3}
      propertyPath: speed
      value: 1.5
      objectReference: {fileID: 0}
    - target: {fileID: 6698403801288838995, guid: a7680d4b97ef5614582c1aec964f28ce, type: 3}
      propertyPath: rotationSpeed
      value: 30
      objectReference: {fileID: 0}
    - target: {fileID: 6698403801288838998, guid: a7680d4b97ef5614582c1aec964f28ce, type: 3}
      propertyPath: m_Name
      value: asteroid6
      objectReference: {fileID: 0}
    m_RemovedComponents: []
  m_SourcePrefab: {fileID: 100100000, guid: a7680d4b97ef5614582c1aec964f28ce, type: 3}
